1000000	 208988	 2309
1500000	 313482	 5167
2000000	 417975	 9371
2500000	 522469	 14494
3000000	 626963	 21836
3500000	 731457	 28664
4000000	 835951	 37125
4500000	 940445	 47059
5000000	 1044938	 57739
